{
    "Password" : "123",
    "CPassword" : "123",
    "Name" : "Rasika",
    "Middle" : "Suresh",
    "Last" : "Kale",
    "Year" : "1998",
    "Month" : "JAN",
    "Day" : "15",
    "Email" : "xyz@gmail.com",
    "Phone_Number1" : "4444444444",
    "Gender" : "Female",
    "Job_Position" : "QA",
    "Current_Address" :"Padmavti,sahkarnagar",
    "City" : "Pune",
    "Pincode" : "411009",
    "Parmanent_Address" : "Padmavti",
    "Attach_file" : "User-icon.jpg",
    "About_Yourself" : "I've worked hard in my education and now I'm ready to apply my knowledge into practice.",
    "Aadhar_Number" : "147852369789",
    "Pan_Number" : "123456DF",
    "Passport" :"-",
    "UAN" : "-",
    "Bank_Name" : "SBI",
    "IFSC_Code" : "SBI1234",
    "Account_Number" : "91015478632",
    "Emergency_contact_Person" : "Suresh",
    "Relation" : "Father",
    "Phone_Number2" : "8888888888",
    "Reference_employee" :"-",
    "Employee_id" :"-",
    "Mother_Name" : "Rajashree",
    "Father_name" : "Suresh",
    "Marital_Status" : "Unmarried",
    "Spouse_Name": "ABC",
    "SYear": "2000",
    "SMonth" : "JAN",
    "SDay": "12",
    "SGender" : "Male",
    "A_Year" : "2021",
    "A_Month" : "SEP",
    "A_Day" : "5",
    "Child1" : "XYZ",
    "CGender" : "Female",
    "No_Child" :1,
    "Qualification" : "Bsc Computer Science",
    "Institute" : "H.V. Desai College ",
    "University" :"Pune University",
    "GAP" : "71",
    "Start_Year" : "2018",
    "Start_Month" : "JUN",
    "Start_Day" : "5",
    "End_Year" : "2020",
    "End_Month" : "FEB",
    "End_Day" : "5",
    "Attach_Certificate" : "demo_Certificate.jpg",
    "No_Q" : "2",
    "Qualification2" : "Bsc Computer Science",
    "Institute2" : "H.V. Desai College ",
    "University2" :"Pune University",
    "GAP2" : "71",
    "Start_Year2" : "2018",
    "Start_Month2" : "JUN",
    "Start_Day2" : "5",
    "End_Year2" : "2020",
    "End_Month2" : "FEB",
    "End_Day2" : "5",
    "Attach_Certificate2" : "demo_Certificate.jpg",
    "Work" : "Experienced",
    "Last_Designation" : "QA",
    "Company_name" : "XYZ",
    "Company_Email" : "xyz@gmail.com",
    "Company_Phone" :"5555555555",
    "EStart_Year" : "2018",
    "EStart_Month" : "JUN",
    "EStart_Day" : "5",
    "EEnd_Year" : "2020",
    "EEnd_Month" : "FEB",
    "EEnd_Day" : "5"

}